# Blender MTL File: 'None'
# Material Count: 1

newmtl mat01
Ns 96.078431
Ka 1.000000 1.000000 1.000000
Kd 1.0000 1.0000 1.0000
Ks 0.500000 0.500000 0.500000
Ke 0.000000 0.000000 0.000000
Ni 1.000000
d 1.000000
illum 2
map_Kd grass01.png
