# Blender v2.78 (sub 0) OBJ File: ''
# www.blender.org
mtllib model.mtl
o Cube
v 1.000000 -1.000000 -1.000000
v 1.000000 -1.000000 1.000000
v -1.000000 -1.000000 1.000000
v -1.000000 -1.000000 -1.000000
v 1.000000 1.000000 -0.999999
v 0.999999 1.000000 1.000001
v -1.000000 1.000000 1.000000
v -1.000000 1.000000 -1.000000
vt 0.3333 0.6667
vt 0.0000 1.0000
vt 0.0000 0.6667
vt 0.3333 0.6667
vt 0.0000 0.3333
vt 0.3333 0.3333
vt 0.0000 0.0000
vt 0.3333 0.3333
vt 0.0000 0.3333
vt 1.0000 0.3333
vt 0.6667 0.0000
vt 1.0000 0.0000
vt 0.6667 0.3333
vt 0.3333 1.0000
vt 0.0000 0.6667
vt 0.3333 0.0000
vt 0.6667 0.3333
vt 0.6667 0.6667
vt 0.6667 0.0000
vt 0.3333 0.0000
vn 0.0000 -1.0000 0.0000
vn 0.0000 1.0000 0.0000
vn 0.0000 -0.0000 1.0000
vn -1.0000 -0.0000 -0.0000
vn 0.0000 0.0000 -1.0000
vn 1.0000 -0.0000 0.0000
usemtl Material
s off
f 2/1/1 4/2/1 1/3/1
f 8/4/2 6/5/2 5/6/2
f 6/7/3 3/8/3 2/9/3
f 3/10/4 8/11/4 4/12/4
f 1/13/5 8/4/5 5/6/5
f 2/1/1 3/14/1 4/2/1
f 8/4/2 7/15/2 6/5/2
f 6/7/3 7/16/3 3/8/3
f 3/10/4 7/17/4 8/11/4
f 1/13/5 4/18/5 8/4/5
usemtl Material.TESTE
f 5/6/6 2/19/6 1/13/6
f 5/6/6 6/20/6 2/19/6
